GEOG 5160 6160 Lab 02
…
The fit function defines the variables (price as the target, everything else as the features)

The fitted model is stored as lr_fit

If you type the name of the fitted object, you’ll get some information about the model fit. In this case, this returns the coefficients (which should be broadly similar to the values we got above with the full dataset).

Evaluating the model

Now this is fit, we can use the testing data to evaluate it. As a reminder, these are data that were not used to train the model, but where the target (price) is known.

To evaluate, we first need to predict the target for each of the test observations:

predict(lr_fit, dat_test)

# A tibble: 137 × 1
   .pred
   <dbl>
 1  16.0
 2  15.7
 3  16.3
 4  15.8
 5  15.8
 6  15.9
 7  15.6
 8  15.5
 9  16.0
10  15.8
# ℹ 127 more rows
…
