GEOG 5160 6160 Lab 10
…
Now let’s take a look at the tiles in images3/. We’ll make a list of the full paths to both images and masks for use in training the model

data_dir <- path("./datafiles/images3/")
dir_create(data_dir)

input_dir <- data_dir / "images/"
target_dir <- data_dir / "masks/"

image_paths <- tibble::tibble(
  input = sort(dir_ls(input_dir, glob = "*.jpg")),
  target = sort(dir_ls(target_dir, glob = "*.png")))

image_paths

# A tibble: 2,016 × 2
   input                                             target                     
   <fs::path>                                        <fs::path>                 
 1 ./datafiles/images3/images/image_part_001_000.jpg …sks/image_part_001_000.png
 2 ./datafiles/images3/images/image_part_001_001.jpg …sks/image_part_001_001.png
 3 ./datafiles/images3/images/image_part_001_002.jpg …sks/image_part_001_002.png
 4 ./datafiles/images3/images/image_part_001_003.jpg …sks/image_part_001_003.png
 5 ./datafiles/images3/images/image_part_001_004.jpg …sks/image_part_001_004.png
 6 ./datafiles/images3/images/image_part_001_005.jpg …sks/image_part_001_005.png
 7 ./datafiles/images3/images/image_part_001_006.jpg …sks/image_part_001_006.png
 8 ./datafiles/images3/images/image_part_001_007.jpg …sks/image_part_001_007.png
 9 ./datafiles/images3/images/image_part_001_008.jpg …sks/image_part_001_008.png
10 ./datafiles/images3/images/image_part_001_009.jpg …sks/image_part_001_009.png
# ℹ 2,006 more rows
…
