GEOG 5160 6160 Lab 03
…
And the default range for tree depth:

tree_depth()

Tree Depth (quantitative)
Range: [1, 15]

We’ll now use these to set up a regular sampling grid. We’ll use 5 values for each of these, giving us 5 * 5 = 25 possible hyperparameter sets:

tree_grid <- grid_regular(min_n(),
                          tree_depth(),
                          levels = 5)
tree_grid

# A tibble: 25 × 2
   min_n tree_depth
   <int>      <int>
 1     2          1
 2    11          1
 3    21          1
 4    30          1
 5    40          1
 6     2          4
 7    11          4
 8    21          4
 9    30          4
10    40          4
# ℹ 15 more rows
…
But we can summarize these as follows

collect_metrics(tree_res)

# A tibble: 50 × 8
   tree_depth min_n .metric  .estimator  mean     n std_err .config             
        <int> <int> <chr>    <chr>      <dbl> <int>   <dbl> <chr>               
 1          1     2 accuracy binary     0.672     5  0.0158 Preprocessor1_Model…
 2          1     2 roc_auc  binary     0.659     5  0.0107 Preprocessor1_Model…
 3          1    11 accuracy binary     0.672     5  0.0158 Preprocessor1_Model…
 4          1    11 roc_auc  binary     0.659     5  0.0107 Preprocessor1_Model…
 5          1    21 accuracy binary     0.672     5  0.0158 Preprocessor1_Model…
 6          1    21 roc_auc  binary     0.659     5  0.0107 Preprocessor1_Model…
 7          1    30 accuracy binary     0.672     5  0.0158 Preprocessor1_Model…
 8          1    30 roc_auc  binary     0.659     5  0.0107 Preprocessor1_Model…
 9          1    40 accuracy binary     0.672     5  0.0158 Preprocessor1_Model…
10          1    40 roc_auc  binary     0.659     5  0.0107 Preprocessor1_Model…
# ℹ 40 more rows
…
# A tibble: 1 × 3
  .metric  .estimator .estimate
  <chr>    <chr>          <dbl>
1 accuracy binary           0.8

We’ll also calculate the ROC AUC. As this is not based on a confusion matrix (and associated threshold for defining 0’s and 1’s), we need to predict the probabilities not the classes. Note that for this outcome, this gives us two predictions - the probability of being a 0 and the probability of being a 1

pred_test <- predict(tree_fit, dat_test2, type='prob') |>
  bind_cols(dat_test2 |> dplyr::select(pa))
pred_test

# A tibble: 120 × 3
   .pred_0 .pred_1 pa   
     <dbl>   <dbl> <fct>
 1  0.0959   0.904 1    
 2  0.0959   0.904 1    
 3  0.0959   0.904 1    
 4  0.0959   0.904 1    
 5  0.0959   0.904 1    
 6  0.0959   0.904 1    
 7  0.177    0.823 1    
 8  0.0959   0.904 1    
 9  0.0625   0.938 1    
10  0.177    0.823 1    
# ℹ 110 more rows
…
## Tuning grid (see also grid_random)
rf_grid <- grid_regular(mtry(range = c(2, 10)),
                        trees(range = c(100, 500)),
                        min_n(range = c(2, 8)),
                        levels = 5)
rf_grid

# A tibble: 125 × 3
    mtry trees min_n
   <int> <int> <int>
 1     2   100     2
 2     4   100     2
 3     6   100     2
 4     8   100     2
 5    10   100     2
 6     2   200     2
 7     4   200     2
 8     6   200     2
 9     8   200     2
10    10   200     2
# ℹ 115 more rows
…
As before, we’ll summarize the results and plot them:

collect_metrics(rf_res)

# A tibble: 250 × 9
    mtry trees min_n .metric  .estimator  mean     n std_err .config            
   <int> <int> <int> <chr>    <chr>      <dbl> <int>   <dbl> <chr>              
 1     2   100     2 accuracy binary     0.812     5 0.0101  Preprocessor1_Mode…
 2     2   100     2 roc_auc  binary     0.900     5 0.00688 Preprocessor1_Mode…
 3     4   100     2 accuracy binary     0.793     5 0.0141  Preprocessor1_Mode…
 4     4   100     2 roc_auc  binary     0.892     5 0.0107  Preprocessor1_Mode…
 5     6   100     2 accuracy binary     0.799     5 0.0125  Preprocessor1_Mode…
 6     6   100     2 roc_auc  binary     0.885     5 0.00841 Preprocessor1_Mode…
 7     8   100     2 accuracy binary     0.810     5 0.00975 Preprocessor1_Mode…
 8     8   100     2 roc_auc  binary     0.888     5 0.00602 Preprocessor1_Mode…
 9    10   100     2 accuracy binary     0.807     5 0.0138  Preprocessor1_Mode…
10    10   100     2 roc_auc  binary     0.890     5 0.0104  Preprocessor1_Mode…
# ℹ 240 more rows
…
Set up tuning grid

gbt_grid <- grid_regular(learn_rate(),
                         trees(range = c(200, 1000)),
                         min_n(range = c(2, 8)),
                         levels = 5)
gbt_grid

# A tibble: 125 × 3
     learn_rate trees min_n
          <dbl> <int> <int>
 1 0.0000000001   200     2
 2 0.0000000178   200     2
 3 0.00000316     200     2
 4 0.000562       200     2
 5 0.1            200     2
 6 0.0000000001   400     2
 7 0.0000000178   400     2
 8 0.00000316     400     2
 9 0.000562       400     2
10 0.1            400     2
# ℹ 115 more rows
…
Summarize

collect_metrics(gbt_res)

# A tibble: 250 × 9
   trees min_n   learn_rate .metric  .estimator  mean     n std_err .config     
   <int> <int>        <dbl> <chr>    <chr>      <dbl> <int>   <dbl> <chr>       
 1   200     2 0.0000000001 accuracy binary     0.481     5  0.0258 Preprocesso…
 2   200     2 0.0000000001 roc_auc  binary     0.5       5  0      Preprocesso…
 3   400     2 0.0000000001 accuracy binary     0.481     5  0.0258 Preprocesso…
 4   400     2 0.0000000001 roc_auc  binary     0.5       5  0      Preprocesso…
 5   600     2 0.0000000001 accuracy binary     0.481     5  0.0258 Preprocesso…
 6   600     2 0.0000000001 roc_auc  binary     0.652     5  0.0214 Preprocesso…
 7   800     2 0.0000000001 accuracy binary     0.481     5  0.0258 Preprocesso…
 8   800     2 0.0000000001 roc_auc  binary     0.713     5  0.0121 Preprocesso…
 9  1000     2 0.0000000001 accuracy binary     0.600     5  0.0455 Preprocesso…
10  1000     2 0.0000000001 roc_auc  binary     0.763     5  0.0192 Preprocesso…
# ℹ 240 more rows
…
The optimal threshold is found where the TPR (sensitivity) is high and the FPR (1-specificity) is low. We can get these from the output of roc_curve

roc_test

# A tibble: 79 × 3
   .threshold specificity sensitivity
        <dbl>       <dbl>       <dbl>
 1  -Inf            0               1
 2     0            0               1
 3     0.005        0.118           1
 4     0.01         0.137           1
 5     0.0125       0.157           1
 6     0.015        0.176           1
 7     0.02         0.216           1
 8     0.025        0.275           1
 9     0.03         0.314           1
10     0.055        0.333           1
# ℹ 69 more rows
…
