GEOG 5160 6160 Lab 01
…
As R is object oriented, functions will adapt to different data types

summary(bl) ## Summary of numeric vector
summary(sp) ## Summary of categorical vector
summary(penguin) ## Summary of data frame

The group_by() function

The group_by function allows you to apply a function to different subsets of data, without having to first split it into the subsets. On it’s own, this function simply creates the groups (here by species):

penguin |>
  group_by(species)

# A tibble: 344 × 8
# Groups:   species [3]
   species island    bill_length_mm bill_depth_mm flipper_length_mm body_mass_g
   <fct>   <chr>              <dbl>         <dbl>             <int>       <int>
 1 Adelie  Torgersen           39.1          18.7               181        3750
 2 Adelie  Torgersen           39.5          17.4               186        3800
 3 Adelie  Torgersen           40.3          18                 195        3250
 4 Adelie  Torgersen           NA            NA                  NA          NA
 5 Adelie  Torgersen           36.7          19.3               193        3450
 6 Adelie  Torgersen           39.3          20.6               190        3650
 7 Adelie  Torgersen           38.9          17.8               181        3625
 8 Adelie  Torgersen           39.2          19.6               195        4675
 9 Adelie  Torgersen           34.1          18.1               193        3475
10 Adelie  Torgersen           42            20.2               190        4250
# ℹ 334 more rows
# ℹ 2 more variables: sex <chr>, year <int>
…
